transcript
# //  Questa Sim-64
# //  Version 2024.1 win64 Feb  1 2024
# //
# // Unpublished work. Copyright 2024 Siemens
# //
# // This material contains trade secrets or otherwise confidential information
# // owned by Siemens Industry Software Inc. or its affiliates (collectively,
# // "SISW"), or its licensors. Access to and use of this information is strictly
# // limited as set forth in the Customer's applicable agreements with SISW.
# //
# // This material may not be copied, distributed, or otherwise disclosed outside
# // of the Customer's facilities without the express written permission of SISW,
# // and may not be used in any way not expressly authorized by SISW.
# //
cd simulation
# reading modelsim.ini
do run.do
# ../src
# ../simulation
# QuestaSim-64 vmap 2024.1 Lib Mapping Utility 2024.02 Feb  1 2024
# vmap work work 
# Modifying modelsim.ini
# QuestaSim-64 vlog 2024.1 Compiler 2024.02 Feb  1 2024
# Start time: 01:27:50 on Jul 09,2026
# vlog -reportprogress 300 "+define+SIM" ../src/defines/define.sv 
# End time: 01:27:50 on Jul 09,2026, Elapsed time: 0:00:00
# Errors: 0, Warnings: 0
# QuestaSim-64 vlog 2024.1 Compiler 2024.02 Feb  1 2024
# Start time: 01:27:50 on Jul 09,2026
# vlog -reportprogress 300 "+incdir+../src/axi" ../src/axi/axi_master.sv ../src/axi/axi_master_wr.sv ../src/axi/axi_master_rd.sv ../src/axi/axi_slave.sv 
# -- Compiling module axi_master
# -- Compiling module axi_master_wr
# -- Compiling module axi_master_rd
# -- Compiling module axi_slave
# 
# Top level modules:
# 	axi_master
# 	axi_slave
# End time: 01:27:50 on Jul 09,2026, Elapsed time: 0:00:00
# Errors: 0, Warnings: 0
# QuestaSim-64 vlog 2024.1 Compiler 2024.02 Feb  1 2024
# Start time: 01:27:50 on Jul 09,2026
# vlog -reportprogress 300 "+incdir+../src/axi" "+incdir+../src/defines" ../simulation/axi_tb.sv 
# -- Compiling package axi_tb_sv_unit
# -- Compiling module axi_tb
# 
# Top level modules:
# 	axi_tb
# End time: 01:27:50 on Jul 09,2026, Elapsed time: 0:00:00
# Errors: 0, Warnings: 0
# vsim -voptargs="+acc" work.axi_tb 
# Start time: 01:27:50 on Jul 09,2026
# ** Note: (vsim-3812) Design is being optimized...
# ** Warning: (vopt-10587) Some optimizations are turned off because the +acc switch is in effect. This will cause your simulation to run slowly. Please use -access/-debug to maintain needed visibility.
# Support of the MGLS_LICENSE_FILE and LM_LICENSE_FILE licensing environment variables will be discontinued starting with the 2025.1 release. Please update to using the SALT_LICENSE_SERVER variable.
# Please contact Siemens EDA Customer Support (https://support.sw.siemens.com/) for assistance.
# ** Note: (vopt-143) Recognized 2 FSMs in module "axi_slave(fast)".
# ** Note: (vopt-143) Recognized 1 FSM in module "axi_master_wr(fast)".
# ** Note: (vopt-143) Recognized 1 FSM in module "axi_master_rd(fast)".
# ** Note: (vsim-12126) Error and warning message counts have been restored: Errors=0, Warnings=1.
# Loading sv_std.std
# Loading work.axi_tb_sv_unit(fast)
# Loading work.axi_tb(fast)
# Loading work.axi_master(fast)
# Loading work.axi_master_wr(fast)
# Loading work.axi_master_rd(fast)
# Loading work.axi_slave(fast)
# --------------------------------------------------------------------------------------
# TIME	AWVALID	AWREADY	ARVALID	ARREADY	WVALID	RVALID	BVALID
# --------------------------------------------------------------------------------------
# 0	0	1	0	1	0	0	0
# 
# =================================
# RESET RELEASED
# =================================
# 
# 55000	1	1	0	1	0	0	0
# 65000	1	0	0	1	1	0	0
# 75000	1	1	0	1	1	0	0
# 85000	1	1	0	1	1	0	1
# [95000] WRITE PASS  ADDR=00000000 DATA=11111111
# 105000	0	1	0	1	0	0	1
# 115000	0	1	1	1	0	0	0
# 125000	0	1	1	0	0	0	0
# 135000	0	1	0	1	0	1	0
# [145000] READ  PASS  ADDR=00000000 DATA=11111111
# PASS : ADDR=00000000 EXPECTED=11111111 RECEIVED=11111111
# 
# 145000	0	1	0	1	0	0	0
# 165000	1	1	0	1	0	0	0
# 175000	1	0	0	1	1	0	0
# 185000	1	1	0	1	1	0	0
# 195000	1	1	0	1	1	0	1
# [205000] WRITE PASS  ADDR=00000004 DATA=22222222
# 215000	0	1	0	1	0	0	1
# 225000	0	1	1	1	0	0	0
# 235000	0	1	1	0	0	0	0
# 245000	0	1	0	1	0	1	0
# [255000] READ  PASS  ADDR=00000004 DATA=22222222
# PASS : ADDR=00000004 EXPECTED=22222222 RECEIVED=22222222
# 
# 255000	0	1	0	1	0	0	0
# 275000	1	1	0	1	0	0	0
# 285000	1	0	0	1	1	0	0
# 295000	1	1	0	1	1	0	0
# 305000	1	1	0	1	1	0	1
# [315000] WRITE PASS  ADDR=00000008 DATA=33333333
# 325000	0	1	0	1	0	0	1
# 335000	0	1	1	1	0	0	0
# 345000	0	1	1	0	0	0	0
# 355000	0	1	0	1	0	1	0
# [365000] READ  PASS  ADDR=00000008 DATA=33333333
# PASS : ADDR=00000008 EXPECTED=33333333 RECEIVED=33333333
# 
# 365000	0	1	0	1	0	0	0
# 385000	1	1	0	1	0	0	0
# 395000	1	0	0	1	1	0	0
# 405000	1	1	0	1	1	0	0
# 415000	1	1	0	1	1	0	1
# [425000] WRITE PASS  ADDR=0000000c DATA=44444444
# 435000	0	1	0	1	0	0	1
# 445000	0	1	1	1	0	0	0
# 455000	0	1	1	0	0	0	0
# 465000	0	1	0	1	0	1	0
# [475000] READ  PASS  ADDR=0000000c DATA=44444444
# PASS : ADDR=0000000c EXPECTED=44444444 RECEIVED=44444444
# 
# 475000	0	1	0	1	0	0	0
# 495000	1	1	0	1	0	0	0
# 505000	1	0	0	1	1	0	0
# 515000	1	1	0	1	1	0	0
# 525000	1	1	0	1	1	0	1
# [535000] WRITE PASS  ADDR=00000010 DATA=55555555
# 545000	0	1	0	1	0	0	1
# 555000	0	1	1	1	0	0	0
# 565000	0	1	1	0	0	0	0
# 575000	0	1	0	1	0	1	0
# [585000] READ  PASS  ADDR=00000010 DATA=55555555
# PASS : ADDR=00000010 EXPECTED=55555555 RECEIVED=55555555
# 
# 585000	0	1	0	1	0	0	0
# 605000	1	1	0	1	0	0	0
# 615000	1	0	0	1	1	0	0
# 625000	1	1	0	1	1	0	0
# 635000	1	1	0	1	1	0	1
# [645000] WRITE PASS  ADDR=00000014 DATA=ffffffff
# 655000	0	1	0	1	0	0	1
# 665000	0	1	1	1	0	0	0
# 675000	0	1	1	0	0	0	0
# 685000	0	1	0	1	0	1	0
# [695000] READ  PASS  ADDR=00000014 DATA=ffffffff
# PASS : ADDR=00000014 EXPECTED=ffffffff RECEIVED=ffffffff
# 
# 695000	0	1	0	1	0	0	0
# 715000	1	1	0	1	0	0	0
# 725000	1	0	0	1	1	0	0
# 735000	1	1	0	1	1	0	0
# 745000	1	1	0	1	1	0	1
# [755000] WRITE PASS  ADDR=00000018 DATA=00000000
# 765000	0	1	0	1	0	0	1
# 775000	0	1	1	1	0	0	0
# 785000	0	1	1	0	0	0	0
# 795000	0	1	0	1	0	1	0
# [805000] READ  PASS  ADDR=00000018 DATA=00000000
# PASS : ADDR=00000018 EXPECTED=00000000 RECEIVED=00000000
# 
# 805000	0	1	0	1	0	0	0
# 825000	1	1	0	1	0	0	0
# 835000	1	0	0	1	1	0	0
# 845000	1	1	0	1	1	0	0
# 855000	1	1	0	1	1	0	1
# [865000] WRITE PASS  ADDR=0000001c DATA=aaaaaaaa
# 875000	0	1	0	1	0	0	1
# 885000	0	1	1	1	0	0	0
# 895000	0	1	1	0	0	0	0
# 905000	0	1	0	1	0	1	0
# [915000] READ  PASS  ADDR=0000001c DATA=aaaaaaaa
# PASS : ADDR=0000001c EXPECTED=aaaaaaaa RECEIVED=aaaaaaaa
# 
# 915000	0	1	0	1	0	0	0
# 935000	1	1	0	1	0	0	0
# 945000	1	0	0	1	1	0	0
# 955000	1	1	0	1	1	0	0
# 965000	1	1	0	1	1	0	1
# [975000] WRITE PASS  ADDR=00000020 DATA=55555555
# 985000	0	1	0	1	0	0	1
# 995000	0	1	1	1	0	0	0
# 1005000	0	1	1	0	0	0	0
# 1015000	0	1	0	1	0	1	0
# [1025000] READ  PASS  ADDR=00000020 DATA=55555555
# PASS : ADDR=00000020 EXPECTED=55555555 RECEIVED=55555555
# 
# 1025000	0	1	0	1	0	0	0
# 1045000	1	1	0	1	0	0	0
# 1055000	1	0	0	1	1	0	0
# 1065000	1	1	0	1	1	0	0
# 1075000	1	1	0	1	1	0	1
# [1085000] WRITE PASS  ADDR=00000024 DATA=12345678
# 1095000	0	1	0	1	0	0	1
# 1105000	0	1	1	1	0	0	0
# 1115000	0	1	1	0	0	0	0
# 1125000	0	1	0	1	0	1	0
# [1135000] READ  PASS  ADDR=00000024 DATA=12345678
# PASS : ADDR=00000024 EXPECTED=12345678 RECEIVED=12345678
# 
# 1135000	0	1	0	1	0	0	0
# 1155000	1	1	0	1	0	0	0
# 1165000	1	0	0	1	1	0	0
# 1175000	1	1	0	1	1	0	0
# 1185000	1	1	0	1	1	0	1
# [1195000] WRITE PASS  ADDR=00000004 DATA=87654321
# 1205000	0	1	0	1	0	0	1
# 1215000	0	1	1	1	0	0	0
# 1225000	0	1	1	0	0	0	0
# 1235000	0	1	0	1	0	1	0
# [1245000] READ  PASS  ADDR=00000004 DATA=87654321
# PASS : ADDR=00000004 EXPECTED=87654321 RECEIVED=87654321
# 
# 1245000	0	1	0	1	0	0	0
# 1265000	1	1	0	1	0	0	0
# 1275000	1	0	0	1	1	0	0
# 1285000	1	1	0	1	1	0	0
# 1295000	1	1	0	1	1	0	1
# [1305000] WRITE PASS  ADDR=00000028 DATA=11112222
# 1315000	0	1	0	1	0	0	1
# 1325000	1	1	0	1	0	0	0
# 1335000	1	0	0	1	1	0	0
# 1345000	1	1	0	1	1	0	0
# 1355000	1	1	0	1	1	0	1
# [1365000] WRITE PASS  ADDR=0000002c DATA=33334444
# 1375000	0	1	0	1	0	0	1
# 1385000	1	1	0	1	0	0	0
# 1395000	1	0	0	1	1	0	0
# 1405000	1	1	0	1	1	0	0
# 1415000	1	1	0	1	1	0	1
# [1425000] WRITE PASS  ADDR=00000030 DATA=55556666
# 1435000	0	1	0	1	0	0	1
# 1445000	0	1	1	1	0	0	0
# 1455000	0	1	1	0	0	0	0
# 1465000	0	1	0	1	0	1	0
# [1475000] READ  PASS  ADDR=00000028 DATA=11112222
# PASS : ADDR=00000028 EXPECTED=11112222 RECEIVED=11112222
# 
# 1475000	0	1	0	1	0	0	0
# 1495000	0	1	1	1	0	0	0
# 1505000	0	1	1	0	0	0	0
# 1515000	0	1	0	1	0	1	0
# [1525000] READ  PASS  ADDR=0000002c DATA=33334444
# PASS : ADDR=0000002c EXPECTED=33334444 RECEIVED=33334444
# 
# 1525000	0	1	0	1	0	0	0
# 1545000	0	1	1	1	0	0	0
# 1555000	0	1	1	0	0	0	0
# 1565000	0	1	0	1	0	1	0
# [1575000] READ  PASS  ADDR=00000030 DATA=55556666
# PASS : ADDR=00000030 EXPECTED=55556666 RECEIVED=55556666
# 
# 
# ==================================
# STARTING RANDOM VERIFICATION
# ==================================
# 1575000	0	1	0	1	0	0	0
# 1595000	1	1	0	1	0	0	0
# 1605000	1	0	0	1	1	0	0
# 1615000	1	1	0	1	1	0	0
# 1625000	1	1	0	1	1	0	1
# [1635000] WRITE PASS  ADDR=00000020 DATA=a30bcd1f
# 1645000	0	1	0	1	0	0	1
# 1655000	0	1	1	1	0	0	0
# 1665000	0	1	1	0	0	0	0
# 1675000	0	1	0	1	0	1	0
# [1685000] READ  PASS  ADDR=00000020 DATA=a30bcd1f
# PASS : ADDR=00000020 EXPECTED=a30bcd1f RECEIVED=a30bcd1f
# 
# 1685000	0	1	0	1	0	0	0
# 1705000	1	1	0	1	0	0	0
# 1715000	1	0	0	1	1	0	0
# 1725000	1	1	0	1	1	0	0
# 1735000	1	1	0	1	1	0	1
# [1745000] WRITE PASS  ADDR=000000d0 DATA=fef202ed
# 1755000	0	1	0	1	0	0	1
# 1765000	0	1	1	1	0	0	0
# 1775000	0	1	1	0	0	0	0
# 1785000	0	1	0	1	0	1	0
# [1795000] READ  PASS  ADDR=000000d0 DATA=fef202ed
# PASS : ADDR=000000d0 EXPECTED=fef202ed RECEIVED=fef202ed
# 
# 1795000	0	1	0	1	0	0	0
# 1815000	1	1	0	1	0	0	0
# 1825000	1	0	0	1	1	0	0
# 1835000	1	1	0	1	1	0	0
# 1845000	1	1	0	1	1	0	1
# [1855000] WRITE PASS  ADDR=000000c0 DATA=915dbe98
# 1865000	0	1	0	1	0	0	1
# 1875000	0	1	1	1	0	0	0
# 1885000	0	1	1	0	0	0	0
# 1895000	0	1	0	1	0	1	0
# [1905000] READ  PASS  ADDR=000000c0 DATA=915dbe98
# PASS : ADDR=000000c0 EXPECTED=915dbe98 RECEIVED=915dbe98
# 
# 1905000	0	1	0	1	0	0	0
# 1925000	1	1	0	1	0	0	0
# 1935000	1	0	0	1	1	0	0
# 1945000	1	1	0	1	1	0	0
# 1955000	1	1	0	1	1	0	1
# [1965000] WRITE PASS  ADDR=00000008 DATA=7d11aa64
# 1975000	0	1	0	1	0	0	1
# 1985000	0	1	1	1	0	0	0
# 1995000	0	1	1	0	0	0	0
# 2005000	0	1	0	1	0	1	0
# [2015000] READ  PASS  ADDR=00000008 DATA=7d11aa64
# PASS : ADDR=00000008 EXPECTED=7d11aa64 RECEIVED=7d11aa64
# 
# 2015000	0	1	0	1	0	0	0
# 2035000	1	1	0	1	0	0	0
# 2045000	1	0	0	1	1	0	0
# 2055000	1	1	0	1	1	0	0
# 2065000	1	1	0	1	1	0	1
# [2075000] WRITE PASS  ADDR=000000f8 DATA=de72be1e
# 2085000	0	1	0	1	0	0	1
# 2095000	0	1	1	1	0	0	0
# 2105000	0	1	1	0	0	0	0
# 2115000	0	1	0	1	0	1	0
# [2125000] READ  PASS  ADDR=000000f8 DATA=de72be1e
# PASS : ADDR=000000f8 EXPECTED=de72be1e RECEIVED=de72be1e
# 
# 2125000	0	1	0	1	0	0	0
# 2145000	1	1	0	1	0	0	0
# 2155000	1	0	0	1	1	0	0
# 2165000	1	1	0	1	1	0	0
# 2175000	1	1	0	1	1	0	1
# [2185000] WRITE PASS  ADDR=00000080 DATA=ad040528
# 2195000	0	1	0	1	0	0	1
# 2205000	0	1	1	1	0	0	0
# 2215000	0	1	1	0	0	0	0
# 2225000	0	1	0	1	0	1	0
# [2235000] READ  PASS  ADDR=00000080 DATA=ad040528
# PASS : ADDR=00000080 EXPECTED=ad040528 RECEIVED=ad040528
# 
# 2235000	0	1	0	1	0	0	0
# 2255000	1	1	0	1	0	0	0
# 2265000	1	0	0	1	1	0	0
# 2275000	1	1	0	1	1	0	0
# 2285000	1	1	0	1	1	0	1
# [2295000] WRITE PASS  ADDR=00000018 DATA=355ee56b
# 2305000	0	1	0	1	0	0	1
# 2315000	0	1	1	1	0	0	0
# 2325000	0	1	1	0	0	0	0
# 2335000	0	1	0	1	0	1	0
# [2345000] READ  PASS  ADDR=00000018 DATA=355ee56b
# PASS : ADDR=00000018 EXPECTED=355ee56b RECEIVED=355ee56b
# 
# 2345000	0	1	0	1	0	0	0
# 2365000	1	1	0	1	0	0	0
# 2375000	1	0	0	1	1	0	0
# 2385000	1	1	0	1	1	0	0
# 2395000	1	1	0	1	1	0	1
# [2405000] WRITE PASS  ADDR=000000a0 DATA=e7ec0ebb
# 2415000	0	1	0	1	0	0	1
# 2425000	0	1	1	1	0	0	0
# 2435000	0	1	1	0	0	0	0
# 2445000	0	1	0	1	0	1	0
# [2455000] READ  PASS  ADDR=000000a0 DATA=e7ec0ebb
# PASS : ADDR=000000a0 EXPECTED=e7ec0ebb RECEIVED=e7ec0ebb
# 
# 2455000	0	1	0	1	0	0	0
# 2475000	1	1	0	1	0	0	0
# 2485000	1	0	0	1	1	0	0
# 2495000	1	1	0	1	1	0	0
# 2505000	1	1	0	1	1	0	1
# [2515000] WRITE PASS  ADDR=00000070 DATA=f2e50794
# 2525000	0	1	0	1	0	0	1
# 2535000	0	1	1	1	0	0	0
# 2545000	0	1	1	0	0	0	0
# 2555000	0	1	0	1	0	1	0
# [2565000] READ  PASS  ADDR=00000070 DATA=f2e50794
# PASS : ADDR=00000070 EXPECTED=f2e50794 RECEIVED=f2e50794
# 
# 2565000	0	1	0	1	0	0	0
# 2585000	1	1	0	1	0	0	0
# 2595000	1	0	0	1	1	0	0
# 2605000	1	1	0	1	1	0	0
# 2615000	1	1	0	1	1	0	1
# [2625000] WRITE PASS  ADDR=00000004 DATA=579ae948
# 2635000	0	1	0	1	0	0	1
# 2645000	0	1	1	1	0	0	0
# 2655000	0	1	1	0	0	0	0
# 2665000	0	1	0	1	0	1	0
# [2675000] READ  PASS  ADDR=00000004 DATA=579ae948
# PASS : ADDR=00000004 EXPECTED=579ae948 RECEIVED=579ae948
# 
# 2675000	0	1	0	1	0	0	0
# 2695000	1	1	0	1	0	0	0
# 2705000	1	0	0	1	1	0	0
# 2715000	1	1	0	1	1	0	0
# 2725000	1	1	0	1	1	0	1
# [2735000] WRITE PASS  ADDR=00000068 DATA=961ddbd0
# 2745000	0	1	0	1	0	0	1
# 2755000	0	1	1	1	0	0	0
# 2765000	0	1	1	0	0	0	0
# 2775000	0	1	0	1	0	1	0
# [2785000] READ  PASS  ADDR=00000068 DATA=961ddbd0
# PASS : ADDR=00000068 EXPECTED=961ddbd0 RECEIVED=961ddbd0
# 
# 2785000	0	1	0	1	0	0	0
# 2805000	1	1	0	1	0	0	0
# 2815000	1	0	0	1	1	0	0
# 2825000	1	1	0	1	1	0	0
# 2835000	1	1	0	1	1	0	1
# [2845000] WRITE PASS  ADDR=000000dc DATA=50675a25
# 2855000	0	1	0	1	0	0	1
# 2865000	0	1	1	1	0	0	0
# 2875000	0	1	1	0	0	0	0
# 2885000	0	1	0	1	0	1	0
# [2895000] READ  PASS  ADDR=000000dc DATA=50675a25
# PASS : ADDR=000000dc EXPECTED=50675a25 RECEIVED=50675a25
# 
# 2895000	0	1	0	1	0	0	0
# 2915000	1	1	0	1	0	0	0
# 2925000	1	0	0	1	1	0	0
# 2935000	1	1	0	1	1	0	0
# 2945000	1	1	0	1	1	0	1
# [2955000] WRITE PASS  ADDR=00000040 DATA=7cdb22e0
# 2965000	0	1	0	1	0	0	1
# 2975000	0	1	1	1	0	0	0
# 2985000	0	1	1	0	0	0	0
# 2995000	0	1	0	1	0	1	0
# [3005000] READ  PASS  ADDR=00000040 DATA=7cdb22e0
# PASS : ADDR=00000040 EXPECTED=7cdb22e0 RECEIVED=7cdb22e0
# 
# 3005000	0	1	0	1	0	0	0
# 3025000	1	1	0	1	0	0	0
# 3035000	1	0	0	1	1	0	0
# 3045000	1	1	0	1	1	0	0
# 3055000	1	1	0	1	1	0	1
# [3065000] WRITE PASS  ADDR=000000f4 DATA=80891bd9
# 3075000	0	1	0	1	0	0	1
# 3085000	0	1	1	1	0	0	0
# 3095000	0	1	1	0	0	0	0
# 3105000	0	1	0	1	0	1	0
# [3115000] READ  PASS  ADDR=000000f4 DATA=80891bd9
# PASS : ADDR=000000f4 EXPECTED=80891bd9 RECEIVED=80891bd9
# 
# 3115000	0	1	0	1	0	0	0
# 3135000	1	1	0	1	0	0	0
# 3145000	1	0	0	1	1	0	0
# 3155000	1	1	0	1	1	0	0
# 3165000	1	1	0	1	1	0	1
# [3175000] WRITE PASS  ADDR=000000cc DATA=8ccb5689
# 3185000	0	1	0	1	0	0	1
# 3195000	0	1	1	1	0	0	0
# 3205000	0	1	1	0	0	0	0
# 3215000	0	1	0	1	0	1	0
# [3225000] READ  PASS  ADDR=000000cc DATA=8ccb5689
# PASS : ADDR=000000cc EXPECTED=8ccb5689 RECEIVED=8ccb5689
# 
# 3225000	0	1	0	1	0	0	0
# 3245000	1	1	0	1	0	0	0
# 3255000	1	0	0	1	1	0	0
# 3265000	1	1	0	1	1	0	0
# 3275000	1	1	0	1	1	0	1
# [3285000] WRITE PASS  ADDR=000000e4 DATA=2acb6469
# 3295000	0	1	0	1	0	0	1
# 3305000	0	1	1	1	0	0	0
# 3315000	0	1	1	0	0	0	0
# 3325000	0	1	0	1	0	1	0
# [3335000] READ  PASS  ADDR=000000e4 DATA=2acb6469
# PASS : ADDR=000000e4 EXPECTED=2acb6469 RECEIVED=2acb6469
# 
# 3335000	0	1	0	1	0	0	0
# 3355000	1	1	0	1	0	0	0
# 3365000	1	0	0	1	1	0	0
# 3375000	1	1	0	1	1	0	0
# 3385000	1	1	0	1	1	0	1
# [3395000] WRITE PASS  ADDR=000000bc DATA=e4edbe95
# 3405000	0	1	0	1	0	0	1
# 3415000	0	1	1	1	0	0	0
# 3425000	0	1	1	0	0	0	0
# 3435000	0	1	0	1	0	1	0
# [3445000] READ  PASS  ADDR=000000bc DATA=e4edbe95
# PASS : ADDR=000000bc EXPECTED=e4edbe95 RECEIVED=e4edbe95
# 
# 3445000	0	1	0	1	0	0	0
# 3465000	1	1	0	1	0	0	0
# 3475000	1	0	0	1	1	0	0
# 3485000	1	1	0	1	1	0	0
# 3495000	1	1	0	1	1	0	1
# [3505000] WRITE PASS  ADDR=000000ac DATA=39da3202
# 3515000	0	1	0	1	0	0	1
# 3525000	0	1	1	1	0	0	0
# 3535000	0	1	1	0	0	0	0
# 3545000	0	1	0	1	0	1	0
# [3555000] READ  PASS  ADDR=000000ac DATA=39da3202
# PASS : ADDR=000000ac EXPECTED=39da3202 RECEIVED=39da3202
# 
# 3555000	0	1	0	1	0	0	0
# 3575000	1	1	0	1	0	0	0
# 3585000	1	0	0	1	1	0	0
# 3595000	1	1	0	1	1	0	0
# 3605000	1	1	0	1	1	0	1
# [3615000] WRITE PASS  ADDR=00000060 DATA=e0aafef2
# 3625000	0	1	0	1	0	0	1
# 3635000	0	1	1	1	0	0	0
# 3645000	0	1	1	0	0	0	0
# 3655000	0	1	0	1	0	1	0
# [3665000] READ  PASS  ADDR=00000060 DATA=e0aafef2
# PASS : ADDR=00000060 EXPECTED=e0aafef2 RECEIVED=e0aafef2
# 
# 3665000	0	1	0	1	0	0	0
# 3685000	1	1	0	1	0	0	0
# 3695000	1	0	0	1	1	0	0
# 3705000	1	1	0	1	1	0	0
# 3715000	1	1	0	1	1	0	1
# [3725000] WRITE PASS  ADDR=00000038 DATA=bcb17eb2
# 3735000	0	1	0	1	0	0	1
# 3745000	0	1	1	1	0	0	0
# 3755000	0	1	1	0	0	0	0
# 3765000	0	1	0	1	0	1	0
# [3775000] READ  PASS  ADDR=00000038 DATA=bcb17eb2
# PASS : ADDR=00000038 EXPECTED=bcb17eb2 RECEIVED=bcb17eb2
# 
# 3775000	0	1	0	1	0	0	0
# 3795000	1	1	0	1	0	0	0
# 3805000	1	0	0	1	1	0	0
# 3815000	1	1	0	1	1	0	0
# 3825000	1	1	0	1	1	0	1
# [3835000] WRITE PASS  ADDR=00000064 DATA=464d64db
# 3845000	0	1	0	1	0	0	1
# 3855000	0	1	1	1	0	0	0
# 3865000	0	1	1	0	0	0	0
# 3875000	0	1	0	1	0	1	0
# [3885000] READ  PASS  ADDR=00000064 DATA=464d64db
# PASS : ADDR=00000064 EXPECTED=464d64db RECEIVED=464d64db
# 
# 3885000	0	1	0	1	0	0	0
# 3905000	1	1	0	1	0	0	0
# 3915000	1	0	0	1	1	0	0
# 3925000	1	1	0	1	1	0	0
# 3935000	1	1	0	1	1	0	1
# [3945000] WRITE PASS  ADDR=0000005c DATA=e9ea86ab
# 3955000	0	1	0	1	0	0	1
# 3965000	0	1	1	1	0	0	0
# 3975000	0	1	1	0	0	0	0
# 3985000	0	1	0	1	0	1	0
# [3995000] READ  PASS  ADDR=0000005c DATA=e9ea86ab
# PASS : ADDR=0000005c EXPECTED=e9ea86ab RECEIVED=e9ea86ab
# 
# 3995000	0	1	0	1	0	0	0
# 4015000	1	1	0	1	0	0	0
# 4025000	1	0	0	1	1	0	0
# 4035000	1	1	0	1	1	0	0
# 4045000	1	1	0	1	1	0	1
# [4055000] WRITE PASS  ADDR=0000006c DATA=02cadaca
# 4065000	0	1	0	1	0	0	1
# 4075000	0	1	1	1	0	0	0
# 4085000	0	1	1	0	0	0	0
# 4095000	0	1	0	1	0	1	0
# [4105000] READ  PASS  ADDR=0000006c DATA=02cadaca
# PASS : ADDR=0000006c EXPECTED=02cadaca RECEIVED=02cadaca
# 
# 4105000	0	1	0	1	0	0	0
# 4125000	1	1	0	1	0	0	0
# 4135000	1	0	0	1	1	0	0
# 4145000	1	1	0	1	1	0	0
# 4155000	1	1	0	1	1	0	1
# [4165000] WRITE PASS  ADDR=000000b8 DATA=e0a98f75
# 4175000	0	1	0	1	0	0	1
# 4185000	0	1	1	1	0	0	0
# 4195000	0	1	1	0	0	0	0
# 4205000	0	1	0	1	0	1	0
# [4215000] READ  PASS  ADDR=000000b8 DATA=e0a98f75
# PASS : ADDR=000000b8 EXPECTED=e0a98f75 RECEIVED=e0a98f75
# 
# 4215000	0	1	0	1	0	0	0
# 4235000	1	1	0	1	0	0	0
# 4245000	1	0	0	1	1	0	0
# 4255000	1	1	0	1	1	0	0
# 4265000	1	1	0	1	1	0	1
# [4275000] WRITE PASS  ADDR=0000000c DATA=8cddfe03
# 4285000	0	1	0	1	0	0	1
# 4295000	0	1	1	1	0	0	0
# 4305000	0	1	1	0	0	0	0
# 4315000	0	1	0	1	0	1	0
# [4325000] READ  PASS  ADDR=0000000c DATA=8cddfe03
# PASS : ADDR=0000000c EXPECTED=8cddfe03 RECEIVED=8cddfe03
# 
# 4325000	0	1	0	1	0	0	0
# 4345000	1	1	0	1	0	0	0
# 4355000	1	0	0	1	1	0	0
# 4365000	1	1	0	1	1	0	0
# 4375000	1	1	0	1	1	0	1
# [4385000] WRITE PASS  ADDR=000000a4 DATA=e7cf20c2
# 4395000	0	1	0	1	0	0	1
# 4405000	0	1	1	1	0	0	0
# 4415000	0	1	1	0	0	0	0
# 4425000	0	1	0	1	0	1	0
# [4435000] READ  PASS  ADDR=000000a4 DATA=e7cf20c2
# PASS : ADDR=000000a4 EXPECTED=e7cf20c2 RECEIVED=e7cf20c2
# 
# 4435000	0	1	0	1	0	0	0
# 4455000	1	1	0	1	0	0	0
# 4465000	1	0	0	1	1	0	0
# 4475000	1	1	0	1	1	0	0
# 4485000	1	1	0	1	1	0	1
# [4495000] WRITE PASS  ADDR=000000b0 DATA=370bb43c
# 4505000	0	1	0	1	0	0	1
# 4515000	0	1	1	1	0	0	0
# 4525000	0	1	1	0	0	0	0
# 4535000	0	1	0	1	0	1	0
# [4545000] READ  PASS  ADDR=000000b0 DATA=370bb43c
# PASS : ADDR=000000b0 EXPECTED=370bb43c RECEIVED=370bb43c
# 
# 4545000	0	1	0	1	0	0	0
# 4565000	1	1	0	1	0	0	0
# 4575000	1	0	0	1	1	0	0
# 4585000	1	1	0	1	1	0	0
# 4595000	1	1	0	1	1	0	1
# [4605000] WRITE PASS  ADDR=0000001c DATA=170caa90
# 4615000	0	1	0	1	0	0	1
# 4625000	0	1	1	1	0	0	0
# 4635000	0	1	1	0	0	0	0
# 4645000	0	1	0	1	0	1	0
# [4655000] READ  PASS  ADDR=0000001c DATA=170caa90
# PASS : ADDR=0000001c EXPECTED=170caa90 RECEIVED=170caa90
# 
# 4655000	0	1	0	1	0	0	0
# 4675000	1	1	0	1	0	0	0
# 4685000	1	0	0	1	1	0	0
# 4695000	1	1	0	1	1	0	0
# 4705000	1	1	0	1	1	0	1
# [4715000] WRITE PASS  ADDR=00000054 DATA=95de95c8
# 4725000	0	1	0	1	0	0	1
# 4735000	0	1	1	1	0	0	0
# 4745000	0	1	1	0	0	0	0
# 4755000	0	1	0	1	0	1	0
# [4765000] READ  PASS  ADDR=00000054 DATA=95de95c8
# PASS : ADDR=00000054 EXPECTED=95de95c8 RECEIVED=95de95c8
# 
# 4765000	0	1	0	1	0	0	0
# 4785000	1	1	0	1	0	0	0
# 4795000	1	0	0	1	1	0	0
# 4805000	1	1	0	1	1	0	0
# 4815000	1	1	0	1	1	0	1
# [4825000] WRITE PASS  ADDR=00000084 DATA=c697bc84
# 4835000	0	1	0	1	0	0	1
# 4845000	0	1	1	1	0	0	0
# 4855000	0	1	1	0	0	0	0
# 4865000	0	1	0	1	0	1	0
# [4875000] READ  PASS  ADDR=00000084 DATA=c697bc84
# PASS : ADDR=00000084 EXPECTED=c697bc84 RECEIVED=c697bc84
# 
# 4875000	0	1	0	1	0	0	0
# 4895000	1	1	0	1	0	0	0
# 4905000	1	0	0	1	1	0	0
# 4915000	1	1	0	1	1	0	0
# 4925000	1	1	0	1	1	0	1
# [4935000] WRITE PASS  ADDR=00000024 DATA=05c41348
# 4945000	0	1	0	1	0	0	1
# 4955000	0	1	1	1	0	0	0
# 4965000	0	1	1	0	0	0	0
# 4975000	0	1	0	1	0	1	0
# [4985000] READ  PASS  ADDR=00000024 DATA=05c41348
# PASS : ADDR=00000024 EXPECTED=05c41348 RECEIVED=05c41348
# 
# 4985000	0	1	0	1	0	0	0
# 5005000	1	1	0	1	0	0	0
# 5015000	1	0	0	1	1	0	0
# 5025000	1	1	0	1	1	0	0
# 5035000	1	1	0	1	1	0	1
# [5045000] WRITE PASS  ADDR=00000094 DATA=02e8533b
# 5055000	0	1	0	1	0	0	1
# 5065000	0	1	1	1	0	0	0
# 5075000	0	1	1	0	0	0	0
# 5085000	0	1	0	1	0	1	0
# [5095000] READ  PASS  ADDR=00000094 DATA=02e8533b
# PASS : ADDR=00000094 EXPECTED=02e8533b RECEIVED=02e8533b
# 
# 5095000	0	1	0	1	0	0	0
# 5115000	1	1	0	1	0	0	0
# 5125000	1	0	0	1	1	0	0
# 5135000	1	1	0	1	1	0	0
# 5145000	1	1	0	1	1	0	1
# [5155000] WRITE PASS  ADDR=00000078 DATA=a0c4f996
# 5165000	0	1	0	1	0	0	1
# 5175000	0	1	1	1	0	0	0
# 5185000	0	1	1	0	0	0	0
